<svg width="22" height="28" viewBox="0 0 22 28" fill="none" xmlns="http://www.w3.org/2000/svg">
<path d="M1 14V24C1 24.663 1.26339 25.2989 1.73223 25.7678C2.20107 26.2366 2.83696 26.5 3.5 26.5H18.5C19.163 26.5 19.7989 26.2366 20.2678 25.7678C20.7366 25.2989 21 24.663 21 24V14" stroke="#222222" stroke-width="2" stroke-linecap="round" stroke-linejoin="round"/>
<path d="M16 6.5L11 1.5L6 6.5" stroke="#222222" stroke-width="2" stroke-linecap="round" stroke-linejoin="round"/>
<path d="M11 1.5V17.75" stroke="#222222" stroke-width="2" stroke-linecap="round" stroke-linejoin="round"/>
</svg>
